{
	"info": {
		"_postman_id": "e49c7aac-bdc8-4ba0-af80-a93cdb01d294",
		"name": "tercer commit",
		"schema": "https://schema.getpostman.com/json/collection/v2.1.0/collection.json"
	},
	"item": [
		{
			"name": "hello",
			"request": {
				"method": "GET",
				"header": []
			},
			"response": []
		},
		{
			"name": "/goodbyejson",
			"request": {
				"method": "GET",
				"header": []
			},
			"response": []
		}
	]
}